{
  "scrapeId": "019e5c67-2e86-733c-a361-8f39eaf9cf51",
  "sourceURL": "Biased_by_Choice_How_Financial_Constraints_Can_Reduce_Financ_10.1093_rfs_hhab073.pdf",
  "url": "https://parse.firecrawl.dev/uploads/Biased_by_Choice_How_Financial_Constraints_Can_Reduce_Financ_10.1093_rfs_hhab073.pdf",
  "statusCode": 200,
  "numPages": 10,
  "title": "OP-REVF210082",
  "pdfOcr": {
    "engine": "docling",
    "adapter_version": "2026-05-24.2",
    "adapter_script_sha256": "deaa8f34f5e0fa9dbe3122934cf4e7c71eeb6f718d7c4d3f50e9d263641c8215",
    "settings_fingerprint": "0da968bac00f54bd57ba756842e91e9d5b3e8a4d9b469e17637910f4a9293970",
    "settings_fingerprint_algorithm": "sha256-canonical-json-v1",
    "profile": "research-page-aware",
    "profile_description": "Academic papers where downstream agents need page chunks and citations.",
    "total_pages": 39,
    "pages_processed": 10,
    "page_count": {
      "total": 39,
      "processed": 10,
      "nonempty": 10
    },
    "page_boundaries": {
      "source": "docling_markdown_page_break",
      "marker": "FIRECRAWLPAGEBREAK",
      "marker_count": 9,
      "observed_page_count": 10
    },
    "pages": [
      {
        "page": 1,
        "text_char_count": 3309,
        "word_count": 460,
        "boundary_source": "docling_markdown_page_break",
        "quality_flags": [],
        "matched_boilerplate_families": []
      },
      {
        "page": 2,
        "text_char_count": 2735,
        "word_count": 413,
        "boundary_source": "docling_markdown_page_break",
        "quality_flags": [],
        "matched_boilerplate_families": []
      },
      {
        "page": 3,
        "text_char_count": 3381,
        "word_count": 507,
        "boundary_source": "docling_markdown_page_break",
        "quality_flags": [],
        "matched_boilerplate_families": []
      },
      {
        "page": 4,
        "text_char_count": 2598,
        "word_count": 407,
        "boundary_source": "docling_markdown_page_break",
        "quality_flags": [],
        "matched_boilerplate_families": []
      },
      {
        "page": 5,
        "text_char_count": 3140,
        "word_count": 451,
        "boundary_source": "docling_markdown_page_break",
        "quality_flags": [],
        "matched_boilerplate_families": []
      },
      {
        "page": 6,
        "text_char_count": 2690,
        "word_count": 404,
        "boundary_source": "docling_markdown_page_break",
        "quality_flags": [],
        "matched_boilerplate_families": []
      },
      {
        "page": 7,
        "text_char_count": 3031,
        "word_count": 452,
        "boundary_source": "docling_markdown_page_break",
        "quality_flags": [],
        "matched_boilerplate_families": []
      },
      {
        "page": 8,
        "text_char_count": 3069,
        "word_count": 480,
        "boundary_source": "docling_markdown_page_break",
        "quality_flags": [],
        "matched_boilerplate_families": []
      },
      {
        "page": 9,
        "text_char_count": 3554,
        "word_count": 506,
        "boundary_source": "docling_markdown_page_break",
        "quality_flags": [],
        "matched_boilerplate_families": []
      },
      {
        "page": 10,
        "text_char_count": 2590,
        "word_count": 384,
        "boundary_source": "docling_markdown_page_break",
        "quality_flags": [],
        "matched_boilerplate_families": []
      }
    ],
    "docling": {
      "url": "http://host.docker.internal:5001",
      "image_id": "quay.io/docling-project/docling-serve-cpu@sha256:528f52f5ce56be1739df117560512ffaa483be53934bf5b0458b4ca088b1a6b0",
      "max_sync_wait": "900",
      "options": {
        "from_formats": [
          "pdf"
        ],
        "to_formats": [
          "md",
          "json",
          "html"
        ],
        "do_ocr": true,
        "force_ocr": true,
        "ocr_preset": "auto",
        "pdf_backend": "docling_parse",
        "table_mode": "accurate",
        "table_cell_matching": true,
        "do_table_structure": true,
        "include_images": true,
        "images_scale": 2,
        "image_export_mode": "placeholder",
        "md_page_break_placeholder": "FIRECRAWLPAGEBREAK",
        "abort_on_error": false,
        "do_code_enrichment": false,
        "do_formula_enrichment": false,
        "do_picture_classification": false,
        "do_chart_extraction": false,
        "do_picture_description": false,
        "document_timeout": 600,
        "page_range": [
          1,
          10
        ]
      },
      "options_sha256": "a9237ab94cec9fdf45f2cb8191cdd824a25f5dfaf050e6f4586e599ac44afd1d",
      "json_summary": {
        "json_export_present": true,
        "page_count": 10,
        "content_item_count": 83,
        "provenance_item_count": 83,
        "items_missing_provenance": 0,
        "table_count": 0,
        "picture_count": 1,
        "table_cell_count": 0,
        "tables_by_page": {}
      }
    },
    "low_quality_gate": {
      "enabled": true,
      "fail_on_low_quality": true
    },
    "cache": {
      "safe_for_reuse": false,
      "reason": "Local OCR profile/env settings can change; Firecrawl bypasses OCR-mode FirePDF cache.",
      "settings_fingerprint": "0da968bac00f54bd57ba756842e91e9d5b3e8a4d9b469e17637910f4a9293970"
    },
    "quality": {
      "total_chars": 30295,
      "page_count_reported": 10,
      "page_count_observed": 10,
      "populated_pages": 10,
      "empty_pages": 0,
      "empty_page_ratio": 0,
      "chars_per_page": [
        3309,
        2735,
        3381,
        2598,
        3140,
        2690,
        3031,
        3069,
        3554,
        2590
      ],
      "chars_per_expected_page": 3029.5,
      "repeated_boilerplate_ratio": 0,
      "repeated_page_ratio": 0,
      "repeated_pages": 0,
      "publisher_boilerplate_ratio": 0,
      "boilerplate_score": 0,
      "matched_boilerplate_families": [],
      "warnings": [],
      "low_quality": false
    }
  },
  "contentType": "application/pdf",
  "proxyUsed": "basic",
  "creditsUsed": 10,
  "concurrencyLimited": false
}
